Creating Your Own Functions pt. 2
…
--

.pull-right[

#### The main things we want it to do

```r
df %>%
  janitor::clean_names() %>%
  janitor::remove_empty("cols") %>%
  janitor::remove_empty("rows")
```

```
## # A tibble: 100 x 2
##    bad_variable_name good_name
##                <dbl>     <dbl>
##  1           -0.445     0.306 
##  2           -1.00      0.212 
##  3           -0.0216    0.412 
##  4            1.44      0.450 
##  5            1.26      0.0994
##  6            0.742     0.452 
##  7           -0.968     0.931 
##  8           -1.57      0.114 
##  9            0.898     0.925 
## 10           -0.298     0.713 
## # … with 90 more rows
```
…
---
# Step 5. Test it (try to break it)

```r
cleaner(df)
```

```
## The data frame has 100 rows and 2 columns.
```

```
## # A tibble: 100 x 2
##    bad_variable_name good_name
##                <dbl>     <dbl>
##  1           -0.445     0.306 
##  2           -1.00      0.212 
##  3           -0.0216    0.412 
##  4            1.44      0.450 
##  5            1.26      0.0994
##  6            0.742     0.452 
##  7           -0.968     0.931 
##  8           -1.57      0.114 
##  9            0.898     0.925 
## 10           -0.298     0.713 
## # … with 90 more rows
```

---
# Step 5. Test it (try to break it)

```r
cleaner(df, print_info = FALSE)
```

```
## # A tibble: 100 x 2
##    bad_variable_name good_name
##                <dbl>     <dbl>
##  1           -0.445     0.306 
##  2           -1.00      0.212 
##  3           -0.0216    0.412 
##  4            1.44      0.450 
##  5            1.26      0.0994
##  6            0.742     0.452 
##  7           -0.968     0.931 
##  8           -1.57      0.114 
##  9            0.898     0.925 
## 10           -0.298     0.713 
## # … with 90 more rows
```
…
